Ukraine,United Kingdom,United States
2003,352259,540640,5681664
2004,343121,540409,5790761
2005,339029,541990,5826394
2006,327797,542045,5737615
2007,328357,528631,5828697
2008,323657,522247,5656839
2009,272176,474579,5299563